[
  {
    "name": "connection1",
    "serverName": "server1",
    "open": true
  },
  {
    "name": "connection2",
    "serverName": "server1",
    "open": true
  },
  {
    "name": "connection3",
    "serverName": "server1",
    "open": true
  },
  {
    "name": "connection4",
    "serverName": "server1",
    "open": true
  }
]